<svg width="503" height="477" viewBox="0 0 503 477" fill="none" xmlns="http://www.w3.org/2000/svg">
<g clip-path="url(#clip0)">
<path d="M94.0595 87.3943C99.9008 87.3943 104.636 82.6659 104.636 76.8332C104.636 71.0005 99.9008 66.2721 94.0595 66.2721C88.2182 66.2721 83.4829 71.0005 83.4829 76.8332C83.4829 82.6659 88.2182 87.3943 94.0595 87.3943Z" fill="#F1F1F1"/>
<path d="M142.801 106.399C146.486 106.399 149.473 103.416 149.473 99.7368C149.473 96.0574 146.486 93.0746 142.801 93.0746C139.116 93.0746 136.129 96.0574 136.129 99.7368C136.129 103.416 139.116 106.399 142.801 106.399Z" fill="#F1F1F1"/>
<path d="M187.958 124.536C190.59 124.536 192.723 122.405 192.723 119.777C192.723 117.15 190.59 115.019 187.958 115.019C185.327 115.019 183.193 117.15 183.193 119.777C183.193 122.405 185.327 124.536 187.958 124.536Z" fill="#F1F1F1"/>
<path d="M412.109 87.3943C417.951 87.3943 422.686 82.6659 422.686 76.8332C422.686 71.0005 417.951 66.2721 412.109 66.2721C406.268 66.2721 401.533 71.0005 401.533 76.8332C401.533 82.6659 406.268 87.3943 412.109 87.3943Z" fill="#F1F1F1"/>
<path d="M363.368 106.399C367.053 106.399 370.04 103.416 370.04 99.7368C370.04 96.0574 367.053 93.0746 363.368 93.0746C359.683 93.0746 356.696 96.0574 356.696 99.7368C356.696 103.416 359.683 106.399 363.368 106.399Z" fill="#F1F1F1"/>
<path d="M318.21 124.536C320.842 124.536 322.975 122.405 322.975 119.777C322.975 117.15 320.842 115.019 318.21 115.019C315.579 115.019 313.445 117.15 313.445 119.777C313.445 122.405 315.579 124.536 318.21 124.536Z" fill="#F1F1F1"/>
<path d="M257.951 441.639C289.225 441.639 314.577 438.755 314.577 435.197C314.577 431.64 289.225 428.756 257.951 428.756C226.678 428.756 201.325 431.64 201.325 435.197C201.325 438.755 226.678 441.639 257.951 441.639Z" fill="#F1F1F1"/>
<path d="M459.395 399.433L76.6802 396.858L80.5424 134.968L463.264 140.596L459.395 399.433Z" fill="#F1F1F1"/>
<path d="M0.624512 475.995H502.375" stroke="#3F3D56" stroke-width="2" stroke-miterlimit="10"/>
<path d="M0.624512 61.5822H502.375" stroke="#3F3D56" stroke-width="2" stroke-miterlimit="10"/>
<path d="M502.417 62.4247L314.535 138.189V396.749L502.417 476.121V62.4247Z" fill="#3F3D56" stroke="#3F3D56" stroke-width="2" stroke-miterlimit="10"/>
<path d="M330.192 341.43L465.082 372.697" stroke="white" stroke-width="2" stroke-miterlimit="10"/>
<path d="M330.192 320.985L465.082 341.43" stroke="white" stroke-width="2" stroke-miterlimit="10"/>
<path d="M330.192 299.338L465.082 313.77" stroke="white" stroke-width="2" stroke-miterlimit="10"/>
<path d="M448.221 225.934V257.201L339.827 249.986V225.934H448.221Z" fill="#FFCD00"/>
<path opacity="0.2" d="M448.221 225.934V257.201L339.827 249.986V248.783L445.811 254.796V225.934H448.221Z" fill="black"/>
<path d="M0.583008 62.4247L188.464 138.189V396.749L0.583008 476.121V62.4247Z" fill="#3F3D56" stroke="#3F3D56" stroke-width="2" stroke-miterlimit="10"/>
<path d="M172.808 341.43L37.9185 372.697" stroke="white" stroke-width="2" stroke-miterlimit="10"/>
<path d="M172.808 320.985L37.9185 341.43" stroke="white" stroke-width="2" stroke-miterlimit="10"/>
<path d="M172.808 299.338L37.9185 313.77" stroke="white" stroke-width="2" stroke-miterlimit="10"/>
<path d="M54.7793 225.934V257.201L163.173 249.986V225.934H54.7793Z" fill="#FFCD00"/>
<path opacity="0.2" d="M54.7793 225.934V257.201L163.173 249.986V248.783L57.188 254.796V225.934H54.7793Z" fill="black"/>
<path d="M205.969 159.123L300.199 160.28" stroke="#3F3D56" stroke-width="2" stroke-miterlimit="10"/>
<path d="M209.774 163.933L210.581 163.09L206.417 159.13L210.677 155.272L209.892 154.41L204.705 159.109L209.774 163.933Z" fill="#3F3D56"/>
<path d="M296.277 164.995L295.492 164.132L299.752 160.276L295.588 156.315L296.394 155.472L301.464 160.297L296.277 164.995Z" fill="#3F3D56"/>
<path d="M253.084 167.575C257.439 167.575 260.969 164.05 260.969 159.702C260.969 155.354 257.439 151.829 253.084 151.829C248.73 151.829 245.2 155.354 245.2 159.702C245.2 164.05 248.73 167.575 253.084 167.575Z" fill="#3F3D56"/>
<path d="M242.54 409.789C242.54 409.789 240.39 419.093 241.107 422.672C241.824 426.251 241.824 434.124 241.824 434.124H243.974V425.535C243.974 425.535 249.708 428.398 251.142 432.692C252.575 436.987 267.628 435.555 268.345 434.124C269.061 432.692 261.177 429.829 261.177 429.829L254.726 410.504L242.54 409.789Z" fill="#2F2E41"/>
<path d="M237.523 325.332C237.523 325.332 241.107 338.215 241.107 343.225C241.107 348.235 238.24 412.652 241.107 412.652C243.974 412.652 255.443 414.083 256.159 411.22C256.876 408.357 254.726 381.875 256.159 379.012C257.593 376.149 267.628 315.311 266.911 314.596C266.194 313.88 241.107 311.733 237.523 325.332Z" fill="#2F2E41"/>
<path d="M236.089 313.164C236.089 313.164 229.638 330.342 235.372 330.342C241.107 330.342 244.69 325.332 248.991 326.763C253.292 328.195 266.194 310.301 266.194 310.301L236.089 313.164Z" fill="#3F3D56"/>
<path d="M262.969 241.232C269.303 241.232 274.437 236.105 274.437 229.781C274.437 223.456 269.303 218.329 262.969 218.329C256.635 218.329 251.5 223.456 251.5 229.781C251.5 236.105 256.635 241.232 262.969 241.232Z" fill="#FFB9B9"/>
<path d="M268.703 233.359C268.703 233.359 263.685 249.821 265.119 251.969C266.553 254.116 251.5 251.253 251.5 251.253C251.5 251.253 256.517 237.654 255.801 234.791C255.084 231.928 268.703 233.359 268.703 233.359Z" fill="#FFB9B9"/>
<path d="M260.46 244.453C260.46 244.453 254.009 242.306 251.858 244.453C249.708 246.601 241.823 297.418 236.806 302.428C231.788 307.438 228.205 314.596 232.505 315.311C236.806 316.027 271.928 320.322 273.362 318.174C274.796 316.027 274.437 294.913 273.72 289.903C273.004 284.893 267.628 245.169 260.46 244.453Z" fill="#FFCD00"/>
<path d="M254.726 315.311L257.593 322.469L264.044 317.458L263.327 312.448L254.726 315.311Z" fill="#FFB9B9"/>
<path opacity="0.1" d="M251.5 256.263C251.5 256.263 251.142 247.316 246.841 258.768C242.54 270.22 233.222 285.25 241.107 296.702C248.991 308.154 249.209 313.151 252.934 312.806C256.658 312.462 268.345 316.743 268.345 315.311C268.345 313.88 254.726 291.692 254.726 291.692C254.373 289.636 254.514 287.526 255.137 285.535C255.76 283.544 256.847 281.729 258.31 280.24C263.327 275.23 260.818 258.41 251.5 256.263Z" fill="black"/>
<path d="M256.159 247.316C256.159 247.316 248.275 245.885 243.974 257.337C239.673 268.788 230.355 283.819 238.24 295.271C246.124 306.722 250.144 318.148 253.868 317.803C257.593 317.459 265.477 315.311 265.477 313.88C265.477 312.448 251.859 290.26 251.859 290.26C251.506 288.205 251.646 286.094 252.269 284.104C252.893 282.113 253.98 280.298 255.442 278.809C260.46 273.799 265.478 249.463 256.159 247.316Z" fill="#FFCD00"/>
<path d="M259.414 212.644C253.517 211.811 247.702 215.543 244.44 220.52C241.179 225.496 239.997 231.52 239.138 237.405C238.965 239.183 238.557 240.931 237.924 242.602C236.499 245.871 233.271 248.339 232.746 251.866C232.413 254.097 233.246 256.312 233.681 258.525C234.836 264.404 233.124 270.587 229.985 275.692C228.583 277.971 226.54 280.273 223.863 280.355L229.473 281.223C228.525 283.294 226.883 284.969 224.83 285.96C231.509 285.124 237.673 281.947 242.227 276.997C246.78 272.047 249.426 265.644 249.694 258.928C249.775 256.9 249.677 254.724 250.78 253.019C251.734 251.544 253.4 250.726 254.914 249.833C260.115 246.763 264.46 241.673 265.155 235.68C265.46 233.046 265.057 230.41 264.953 227.778C264.843 225.004 269.508 223.132 270.137 220.476C271.092 216.44 263.125 213.167 259.414 212.644Z" fill="#2F2E41"/>
</g>
<path d="M221.846 68.0072C216.443 59.4173 214.148 49.0766 215.376 38.8605C216.605 28.6443 221.275 19.2292 228.541 12.3224C235.806 5.41561 245.186 1.47455 254.979 1.21391C264.772 0.953261 274.329 4.39029 281.918 10.9017C289.507 17.4131 294.625 26.5677 296.343 36.7055C298.062 46.8432 296.268 57.2927 291.286 66.159C286.304 75.0253 278.465 81.7214 269.189 85.0329C259.914 88.3444 249.816 88.052 240.728 84.2088C240.12 86.4215 239 88.4412 237.467 90.087C235.935 91.7328 234.038 92.9534 231.946 93.6396C229.855 94.3257 227.634 94.456 225.483 94.0187C223.332 93.5814 221.317 92.5902 219.62 91.1339C217.923 89.6775 216.595 87.8014 215.757 85.6736C214.918 83.5458 214.595 81.2326 214.815 78.9412C215.036 76.6497 215.794 74.4515 217.02 72.5434C218.247 70.6352 219.905 69.0767 221.846 68.0072Z" fill="#3F3D56"/>
<path d="M255.975 19.6473C265.365 19.7267 271.784 25.2565 271.724 33.127C271.684 38.3389 269.252 41.9248 264.598 44.7548C260.22 47.3765 258.728 49.3119 258.702 52.6812C258.7 52.9543 258.647 53.2243 258.546 53.4757C258.444 53.7272 258.297 53.9552 258.112 54.1467C257.926 54.3383 257.707 54.4896 257.466 54.5921C257.226 54.6946 256.968 54.7462 256.708 54.744L251.908 54.7034C251.395 54.699 250.904 54.4856 250.538 54.1081C250.172 53.7306 249.96 53.2184 249.946 52.6796L249.939 52.4228C249.555 46.9967 251.384 43.6427 255.938 40.8908C260.19 38.268 261.981 36.5984 262.006 33.3344C262.03 30.0703 259.044 27.6496 255.313 27.618C252.477 27.594 250.222 29.0261 249.174 31.3864C248.806 32.1853 248.228 32.8567 247.509 33.3212C246.789 33.7857 245.958 34.0239 245.114 34.0075C241.861 33.98 239.741 30.3258 241.285 27.3165C243.728 22.5561 248.828 19.5868 255.975 19.6473ZM249.044 64.7088C249.067 61.6816 251.489 59.3066 254.444 59.3316C257.424 59.3568 259.81 61.7462 259.787 64.7996C259.763 67.8531 257.341 70.2018 254.361 70.1766C251.381 70.1514 249.021 67.7622 249.044 64.7088Z" fill="#FFCD00"/>
<defs>
<clipPath id="clip0">
<rect width="503" height="416" fill="white" transform="translate(0 61)"/>
</clipPath>
</defs>
</svg>
