<svg width="462" height="298" viewBox="0 0 462 298" fill="none" xmlns="http://www.w3.org/2000/svg">
<g clip-path="url(#clip0)">
<path d="M428.115 258.385L383.293 180.733C383.169 180.514 382.988 180.333 382.771 180.207C382.553 180.081 382.306 180.014 382.055 180.014C381.803 180.014 381.556 180.081 381.339 180.207C381.121 180.333 380.941 180.514 380.816 180.733L335.982 258.385C335.851 258.603 335.781 258.851 335.778 259.105C335.776 259.359 335.841 259.609 335.967 259.83C336.094 260.05 336.277 260.233 336.498 260.359C336.718 260.485 336.969 260.549 337.223 260.546H350.597C350.976 260.547 351.339 260.698 351.607 260.966C351.875 261.234 352.026 261.598 352.028 261.977V278.566C352.027 278.753 352.063 278.939 352.135 279.112C352.206 279.286 352.31 279.443 352.442 279.576C352.574 279.709 352.731 279.814 352.904 279.887C353.077 279.959 353.262 279.996 353.45 279.997H370.9C371.28 279.997 371.644 279.846 371.912 279.578C372.18 279.309 372.331 278.946 372.331 278.566V270.539C372.331 270.161 372.481 269.798 372.749 269.531C373.016 269.263 373.379 269.113 373.758 269.113H390.348C390.727 269.113 391.09 269.263 391.358 269.531C391.626 269.798 391.778 270.161 391.779 270.539V278.549C391.779 278.928 391.929 279.292 392.198 279.561C392.466 279.829 392.83 279.98 393.209 279.98H410.656C411.035 279.977 411.398 279.826 411.666 279.558C411.935 279.291 412.087 278.928 412.091 278.549V261.959C412.091 261.58 412.242 261.216 412.51 260.948C412.778 260.679 413.142 260.529 413.522 260.529H426.896C427.145 260.525 427.389 260.456 427.603 260.329C427.818 260.203 427.995 260.022 428.118 259.805C428.241 259.589 428.306 259.344 428.305 259.095C428.305 258.845 428.239 258.601 428.115 258.385ZM365.622 266.978C365.354 267.251 364.989 267.406 364.607 267.41H358.313C357.933 267.41 357.569 267.259 357.301 266.991C357.033 266.723 356.882 266.359 356.882 265.979C356.882 265.6 357.033 265.236 357.301 264.968C357.569 264.699 357.933 264.549 358.313 264.549H364.607C364.795 264.548 364.981 264.585 365.155 264.656C365.329 264.728 365.487 264.833 365.62 264.966C365.753 265.099 365.858 265.257 365.93 265.431C366.001 265.605 366.038 265.791 366.037 265.979C366.034 266.353 365.885 266.711 365.622 266.978ZM406.804 266.978C406.673 267.113 406.516 267.221 406.342 267.296C406.168 267.37 405.982 267.409 405.793 267.41H399.503C399.124 267.409 398.761 267.258 398.493 266.99C398.225 266.722 398.074 266.358 398.072 265.979C398.075 265.601 398.226 265.238 398.494 264.97C398.762 264.702 399.124 264.551 399.503 264.549H405.793C406.077 264.547 406.355 264.629 406.591 264.786C406.828 264.943 407.012 265.167 407.121 265.429C407.229 265.691 407.257 265.98 407.201 266.258C407.144 266.536 407.006 266.791 406.804 266.991V266.978Z" fill="#F2F2F2"/>
<path d="M151.007 259.068L106.177 181.42C106.051 181.203 105.87 181.023 105.652 180.898C105.434 180.772 105.188 180.707 104.936 180.707C104.685 180.707 104.438 180.772 104.221 180.898C104.003 181.023 103.822 181.203 103.696 181.42L64.9692 248.487C69.8141 254.583 75.248 260.188 81.1921 265.219H87.4902C87.7731 265.219 88.0497 265.303 88.2849 265.46C88.5201 265.617 88.7034 265.841 88.8117 266.102C88.9199 266.363 88.9483 266.651 88.8931 266.928C88.8379 267.206 88.7017 267.461 88.5017 267.661C88.3709 267.797 88.2138 267.906 88.04 267.98C87.8662 268.054 87.6792 268.093 87.4902 268.093H84.8275C88.0888 270.546 91.5604 272.705 95.2018 274.547V271.24C95.203 270.86 95.3547 270.496 95.6237 270.228C95.8927 269.96 96.2571 269.809 96.6369 269.809H113.223C113.602 269.809 113.966 269.96 114.235 270.228C114.503 270.497 114.654 270.86 114.654 271.24V279.245C114.651 279.453 114.697 279.659 114.788 279.846C114.901 280.094 115.084 280.305 115.314 280.452C115.544 280.599 115.811 280.677 116.085 280.676H133.535C133.756 280.676 133.974 280.623 134.172 280.524C134.369 280.424 134.541 280.279 134.672 280.101C134.863 279.854 134.963 279.549 134.957 279.236V262.647C134.957 262.267 135.108 261.904 135.376 261.635C135.645 261.367 136.008 261.216 136.388 261.216H149.762C150.015 261.219 150.263 261.154 150.483 261.029C150.702 260.904 150.884 260.724 151.011 260.505C151.138 260.287 151.204 260.038 151.203 259.786C151.203 259.534 151.135 259.286 151.007 259.068ZM121.371 265.638C121.504 265.503 121.662 265.395 121.836 265.321C122.01 265.247 122.197 265.207 122.387 265.206H128.681C129.06 265.206 129.424 265.357 129.692 265.625C129.961 265.893 130.111 266.257 130.111 266.637C130.109 267.015 129.958 267.378 129.69 267.646C129.422 267.914 129.059 268.065 128.681 268.067H122.387C122.199 268.068 122.013 268.031 121.839 267.96C121.665 267.888 121.507 267.782 121.374 267.649C121.241 267.517 121.136 267.359 121.064 267.185C120.992 267.011 120.956 266.825 120.956 266.637C120.96 266.263 121.109 265.905 121.371 265.638ZM93.2134 236.903C93.0253 236.903 92.839 236.867 92.6652 236.795C92.4913 236.723 92.3334 236.618 92.2004 236.485C92.0674 236.352 91.9621 236.194 91.8903 236.02C91.8186 235.846 91.782 235.66 91.7826 235.472V224.605C91.782 224.417 91.8186 224.231 91.8903 224.057C91.9621 223.883 92.0674 223.725 92.2004 223.592C92.3334 223.459 92.4913 223.354 92.6652 223.282C92.839 223.211 93.0253 223.174 93.2134 223.175H116.664C117.043 223.175 117.407 223.325 117.675 223.594C117.944 223.862 118.095 224.226 118.095 224.605V235.472C118.095 235.851 117.944 236.215 117.675 236.484C117.407 236.752 117.043 236.903 116.664 236.903H93.2134Z" fill="#F2F2F2"/>
<path d="M328.231 119.575H272.746V107.576C272.746 107.199 272.673 106.826 272.529 106.477C272.384 106.129 272.173 105.812 271.906 105.546C271.64 105.279 271.323 105.068 270.975 104.923C270.626 104.779 270.253 104.706 269.876 104.706H253.584V91.9464C253.584 91.4672 253.393 91.0077 253.054 90.6688C252.715 90.33 252.256 90.1396 251.777 90.1396H230.79C230.311 90.1396 229.851 90.33 229.513 90.6688C229.174 91.0077 228.983 91.4672 228.983 91.9464V104.728H209.821C209.06 104.728 208.33 105.03 207.792 105.568C207.253 106.107 206.951 106.837 206.951 107.598V119.567H154.059C153.905 119.568 153.758 119.63 153.649 119.739C153.541 119.848 153.48 119.996 153.48 120.15V279.448C153.48 279.602 153.541 279.75 153.649 279.859C153.758 279.969 153.905 280.031 154.059 280.032H189.219C189.374 280.032 189.523 279.97 189.632 279.861C189.741 279.751 189.803 279.603 189.803 279.448V258.018C189.805 257.863 189.868 257.715 189.978 257.606C190.088 257.497 190.236 257.435 190.391 257.434H205.239C205.394 257.435 205.541 257.497 205.65 257.606C205.76 257.716 205.822 257.863 205.823 258.018V279.448C205.824 279.602 205.885 279.749 205.993 279.858C206.102 279.967 206.248 280.03 206.402 280.032H275.884C276.039 280.031 276.186 279.969 276.295 279.86C276.405 279.75 276.466 279.603 276.468 279.448V258.018C276.469 257.864 276.53 257.717 276.638 257.608C276.747 257.499 276.893 257.436 277.047 257.434H291.899C292.055 257.434 292.204 257.496 292.314 257.605C292.424 257.714 292.486 257.863 292.487 258.018V279.448C292.488 279.602 292.55 279.749 292.658 279.858C292.766 279.967 292.913 280.03 293.067 280.032H328.231C328.385 280.031 328.533 279.969 328.641 279.859C328.75 279.75 328.811 279.602 328.811 279.448V120.159C328.811 120.005 328.75 119.857 328.641 119.748C328.533 119.638 328.385 119.576 328.231 119.575ZM183.505 249.991C183.505 250.144 183.444 250.291 183.337 250.399C183.229 250.508 183.083 250.569 182.93 250.57H161.213C161.136 250.571 161.06 250.556 160.989 250.528C160.918 250.499 160.854 250.456 160.799 250.402C160.744 250.349 160.701 250.285 160.671 250.214C160.641 250.143 160.626 250.068 160.625 249.991V242.574C160.626 242.419 160.689 242.27 160.799 242.161C160.909 242.052 161.058 241.99 161.213 241.99H182.93C183.083 241.993 183.229 242.055 183.337 242.164C183.445 242.273 183.505 242.421 183.505 242.574V249.991ZM183.505 230.825C183.505 230.902 183.491 230.977 183.462 231.047C183.434 231.118 183.392 231.182 183.338 231.236C183.285 231.291 183.221 231.334 183.151 231.363C183.081 231.393 183.006 231.408 182.93 231.409H161.213C161.136 231.41 161.06 231.395 160.988 231.366C160.917 231.337 160.852 231.294 160.798 231.24C160.743 231.185 160.699 231.121 160.67 231.05C160.64 230.979 160.625 230.902 160.625 230.825V223.413C160.625 223.336 160.64 223.259 160.67 223.188C160.699 223.117 160.743 223.053 160.798 222.998C160.852 222.944 160.917 222.901 160.988 222.872C161.06 222.843 161.136 222.828 161.213 222.829H182.93C183.006 222.83 183.081 222.845 183.151 222.875C183.221 222.904 183.285 222.948 183.338 223.002C183.392 223.056 183.434 223.12 183.462 223.191C183.491 223.261 183.505 223.337 183.505 223.413V230.825ZM183.505 211.664C183.505 211.817 183.445 211.965 183.337 212.074C183.229 212.183 183.083 212.245 182.93 212.248H161.213C161.058 212.248 160.909 212.186 160.799 212.077C160.689 211.968 160.626 211.819 160.625 211.664V204.247C160.626 204.092 160.689 203.943 160.799 203.834C160.909 203.725 161.058 203.663 161.213 203.663H182.93C183.083 203.666 183.229 203.728 183.337 203.837C183.445 203.947 183.505 204.094 183.505 204.247V211.664ZM183.505 192.499C183.505 192.575 183.491 192.65 183.462 192.721C183.434 192.791 183.392 192.855 183.338 192.909C183.285 192.964 183.221 193.007 183.151 193.036C183.081 193.066 183.006 193.082 182.93 193.082H161.213C161.136 193.083 161.06 193.068 160.988 193.039C160.917 193.01 160.852 192.967 160.798 192.913C160.743 192.859 160.699 192.794 160.67 192.723C160.64 192.652 160.625 192.576 160.625 192.499V185.086C160.625 185.009 160.64 184.933 160.67 184.861C160.699 184.79 160.743 184.726 160.798 184.672C160.852 184.617 160.917 184.574 160.988 184.545C161.06 184.516 161.136 184.502 161.213 184.502H182.93C183.006 184.503 183.081 184.518 183.151 184.548C183.221 184.578 183.285 184.621 183.338 184.675C183.392 184.729 183.434 184.793 183.462 184.864C183.491 184.934 183.505 185.01 183.505 185.086V192.499ZM183.505 173.337C183.505 173.491 183.445 173.638 183.337 173.747C183.229 173.856 183.083 173.919 182.93 173.921H161.213C161.058 173.921 160.909 173.86 160.799 173.75C160.689 173.641 160.626 173.493 160.625 173.337V165.92C160.626 165.844 160.641 165.768 160.671 165.697C160.701 165.627 160.744 165.563 160.799 165.509C160.854 165.455 160.918 165.413 160.989 165.384C161.06 165.355 161.136 165.34 161.213 165.341H182.93C183.083 165.342 183.229 165.404 183.337 165.512C183.444 165.621 183.505 165.767 183.505 165.92V173.337ZM183.505 154.176C183.505 154.329 183.444 154.476 183.337 154.584C183.229 154.693 183.083 154.754 182.93 154.755H161.213C161.136 154.756 161.06 154.741 160.989 154.713C160.918 154.684 160.854 154.641 160.799 154.588C160.744 154.534 160.701 154.47 160.671 154.399C160.641 154.329 160.626 154.253 160.625 154.176V146.759C160.626 146.604 160.689 146.455 160.799 146.346C160.909 146.237 161.058 146.175 161.213 146.175H182.93C183.083 146.178 183.229 146.24 183.337 146.349C183.445 146.459 183.505 146.606 183.505 146.759V154.176ZM183.505 135.011C183.505 135.087 183.491 135.162 183.462 135.233C183.434 135.303 183.392 135.367 183.338 135.421C183.285 135.476 183.221 135.519 183.151 135.548C183.081 135.578 183.006 135.594 182.93 135.594H161.213C161.136 135.595 161.06 135.58 160.988 135.551C160.917 135.522 160.852 135.479 160.798 135.425C160.743 135.37 160.699 135.306 160.67 135.235C160.64 135.164 160.625 135.088 160.625 135.011V127.598C160.625 127.521 160.64 127.444 160.67 127.373C160.699 127.302 160.743 127.238 160.798 127.184C160.852 127.129 160.917 127.086 160.988 127.057C161.06 127.028 161.136 127.014 161.213 127.014H182.93C183.006 127.015 183.081 127.03 183.151 127.06C183.221 127.09 183.285 127.133 183.338 127.187C183.392 127.241 183.434 127.305 183.462 127.376C183.491 127.446 183.505 127.522 183.505 127.598V135.011ZM234.996 249.987C234.996 250.063 234.98 250.139 234.95 250.21C234.92 250.28 234.877 250.344 234.822 250.398C234.768 250.452 234.703 250.494 234.632 250.523C234.561 250.552 234.485 250.566 234.408 250.566H212.691C212.538 250.566 212.39 250.505 212.282 250.396C212.173 250.288 212.112 250.14 212.112 249.987V242.574C212.112 242.42 212.173 242.272 212.281 242.163C212.39 242.053 212.537 241.991 212.691 241.99H234.408C234.563 241.99 234.712 242.052 234.822 242.161C234.933 242.27 234.995 242.419 234.996 242.574V249.987ZM234.996 230.821C234.996 230.898 234.981 230.974 234.951 231.045C234.922 231.117 234.878 231.181 234.824 231.235C234.769 231.29 234.704 231.332 234.633 231.362C234.562 231.391 234.485 231.405 234.408 231.405H212.691C212.615 231.405 212.539 231.39 212.469 231.36C212.398 231.331 212.334 231.288 212.28 231.234C212.226 231.179 212.184 231.115 212.155 231.044C212.126 230.973 212.112 230.898 212.112 230.821V223.413C212.112 223.336 212.126 223.26 212.155 223.19C212.184 223.119 212.226 223.054 212.28 223C212.334 222.946 212.398 222.903 212.469 222.874C212.539 222.844 212.615 222.829 212.691 222.829H234.408C234.485 222.828 234.562 222.843 234.633 222.872C234.704 222.901 234.769 222.944 234.824 222.998C234.878 223.053 234.922 223.117 234.951 223.188C234.981 223.259 234.996 223.336 234.996 223.413V230.821ZM234.996 211.66C234.995 211.815 234.933 211.963 234.822 212.073C234.712 212.182 234.563 212.243 234.408 212.243H212.691C212.54 212.242 212.395 212.183 212.287 212.077C212.179 211.972 212.117 211.828 212.112 211.677V204.247C212.112 204.093 212.173 203.945 212.281 203.836C212.39 203.727 212.537 203.665 212.691 203.663H234.408C234.563 203.663 234.712 203.725 234.822 203.834C234.933 203.943 234.995 204.092 234.996 204.247V211.66ZM234.996 192.494C234.996 192.571 234.981 192.648 234.951 192.719C234.922 192.79 234.878 192.854 234.824 192.908C234.769 192.963 234.704 193.006 234.633 193.035C234.562 193.064 234.485 193.078 234.408 193.078H212.691C212.615 193.078 212.539 193.063 212.469 193.033C212.398 193.004 212.334 192.961 212.28 192.907C212.226 192.852 212.184 192.788 212.155 192.717C212.126 192.647 212.112 192.571 212.112 192.494V185.086C212.112 185.009 212.126 184.934 212.155 184.863C212.184 184.792 212.226 184.728 212.28 184.673C212.334 184.619 212.398 184.576 212.469 184.547C212.539 184.517 212.615 184.502 212.691 184.502H234.408C234.485 184.502 234.562 184.516 234.633 184.545C234.704 184.574 234.769 184.617 234.824 184.672C234.878 184.726 234.922 184.79 234.951 184.861C234.981 184.933 234.996 185.009 234.996 185.086V192.494ZM234.996 173.333C234.995 173.488 234.933 173.637 234.822 173.746C234.712 173.855 234.563 173.917 234.408 173.917H212.691C212.537 173.915 212.39 173.854 212.281 173.744C212.173 173.635 212.112 173.487 212.112 173.333V165.92C212.112 165.767 212.173 165.619 212.282 165.511C212.39 165.402 212.538 165.341 212.691 165.341H234.408C234.485 165.34 234.561 165.355 234.632 165.384C234.703 165.413 234.768 165.455 234.822 165.509C234.877 165.563 234.92 165.627 234.95 165.697C234.98 165.768 234.996 165.844 234.996 165.92V173.333ZM234.996 154.172C234.996 154.248 234.98 154.324 234.95 154.395C234.92 154.465 234.877 154.529 234.822 154.583C234.768 154.637 234.703 154.679 234.632 154.708C234.561 154.737 234.485 154.752 234.408 154.751H212.691C212.541 154.751 212.396 154.692 212.288 154.588C212.18 154.483 212.117 154.34 212.112 154.189V146.759C212.112 146.605 212.173 146.457 212.281 146.348C212.39 146.239 212.537 146.177 212.691 146.175H234.408C234.563 146.175 234.712 146.237 234.822 146.346C234.933 146.455 234.995 146.604 234.996 146.759V154.172ZM234.996 135.006C234.996 135.083 234.981 135.16 234.951 135.231C234.922 135.302 234.878 135.366 234.824 135.42C234.769 135.475 234.704 135.518 234.633 135.547C234.562 135.576 234.485 135.59 234.408 135.59H212.691C212.615 135.59 212.539 135.575 212.469 135.545C212.398 135.516 212.334 135.473 212.28 135.419C212.226 135.364 212.184 135.3 212.155 135.229C212.126 135.158 212.112 135.083 212.112 135.006V127.598C212.112 127.521 212.126 127.445 212.155 127.375C212.184 127.304 212.226 127.24 212.28 127.185C212.334 127.131 212.398 127.088 212.469 127.059C212.539 127.029 212.615 127.014 212.691 127.014H234.408C234.485 127.014 234.562 127.028 234.633 127.057C234.704 127.086 234.769 127.129 234.824 127.184C234.878 127.238 234.922 127.302 234.951 127.373C234.981 127.444 234.996 127.521 234.996 127.598V135.006ZM270.174 249.982C270.174 250.059 270.159 250.135 270.129 250.205C270.1 250.276 270.057 250.34 270.003 250.394C269.948 250.447 269.884 250.49 269.813 250.519C269.743 250.548 269.667 250.562 269.59 250.562H247.86C247.706 250.562 247.558 250.501 247.448 250.393C247.338 250.284 247.275 250.137 247.272 249.982V242.574C247.275 242.419 247.338 242.271 247.447 242.162C247.557 242.053 247.706 241.991 247.86 241.99H269.573C269.728 241.99 269.876 242.052 269.986 242.161C270.095 242.271 270.157 242.419 270.157 242.574L270.174 249.982ZM270.174 230.817C270.174 230.894 270.16 230.97 270.131 231.041C270.101 231.112 270.059 231.176 270.004 231.231C269.95 231.285 269.885 231.328 269.814 231.357C269.743 231.386 269.667 231.401 269.59 231.4H247.86C247.705 231.4 247.556 231.339 247.446 231.23C247.336 231.12 247.274 230.972 247.272 230.817V223.413C247.274 223.257 247.336 223.109 247.446 223C247.556 222.89 247.705 222.829 247.86 222.829H269.573C269.65 222.828 269.726 222.843 269.797 222.872C269.868 222.901 269.933 222.944 269.987 222.999C270.041 223.053 270.084 223.118 270.113 223.189C270.142 223.26 270.157 223.336 270.157 223.413L270.174 230.817ZM270.174 211.656C270.174 211.732 270.159 211.808 270.129 211.879C270.1 211.95 270.057 212.014 270.003 212.068C269.949 212.122 269.884 212.165 269.814 212.195C269.743 212.224 269.667 212.239 269.59 212.239H247.86C247.706 212.238 247.557 212.176 247.447 212.067C247.338 211.958 247.275 211.81 247.272 211.656V204.247C247.275 204.092 247.338 203.944 247.447 203.835C247.557 203.726 247.706 203.665 247.86 203.663H269.573C269.65 203.663 269.726 203.679 269.796 203.708C269.867 203.737 269.931 203.78 269.986 203.834C270.04 203.889 270.083 203.953 270.112 204.024C270.141 204.094 270.157 204.17 270.157 204.247L270.174 211.656ZM270.174 192.49C270.174 192.567 270.16 192.643 270.131 192.714C270.101 192.785 270.059 192.85 270.004 192.904C269.95 192.958 269.885 193.001 269.814 193.03C269.743 193.059 269.667 193.074 269.59 193.074H247.86C247.705 193.074 247.556 193.012 247.446 192.903C247.336 192.794 247.274 192.645 247.272 192.49V185.086C247.274 184.931 247.336 184.782 247.446 184.673C247.556 184.564 247.705 184.502 247.86 184.502H269.573C269.65 184.502 269.726 184.516 269.797 184.545C269.868 184.575 269.933 184.618 269.987 184.672C270.041 184.726 270.084 184.791 270.113 184.862C270.142 184.933 270.157 185.009 270.157 185.086L270.174 192.49ZM270.174 173.329C270.174 173.405 270.159 173.481 270.129 173.552C270.1 173.623 270.057 173.687 270.003 173.741C269.949 173.796 269.884 173.839 269.814 173.868C269.743 173.897 269.667 173.912 269.59 173.912H247.86C247.706 173.911 247.557 173.849 247.447 173.74C247.338 173.631 247.275 173.484 247.272 173.329V165.92C247.275 165.766 247.338 165.618 247.448 165.51C247.558 165.402 247.706 165.341 247.86 165.341H269.573C269.649 165.34 269.725 165.355 269.796 165.384C269.867 165.413 269.931 165.455 269.985 165.509C270.04 165.563 270.083 165.627 270.112 165.698C270.141 165.768 270.157 165.844 270.157 165.92L270.174 173.329ZM270.174 154.168C270.174 154.244 270.159 154.32 270.129 154.39C270.1 154.461 270.057 154.525 270.003 154.579C269.948 154.632 269.884 154.675 269.813 154.704C269.743 154.733 269.667 154.747 269.59 154.747H247.86C247.706 154.747 247.558 154.686 247.448 154.578C247.338 154.469 247.275 154.322 247.272 154.168V146.759C247.275 146.604 247.338 146.456 247.447 146.347C247.557 146.238 247.706 146.176 247.86 146.175H269.573C269.728 146.175 269.876 146.237 269.986 146.346C270.095 146.456 270.157 146.604 270.157 146.759L270.174 154.168ZM270.174 135.002C270.174 135.079 270.16 135.155 270.131 135.226C270.101 135.297 270.059 135.362 270.004 135.416C269.95 135.47 269.885 135.513 269.814 135.542C269.743 135.571 269.667 135.586 269.59 135.585H247.86C247.705 135.585 247.556 135.524 247.446 135.415C247.336 135.306 247.274 135.157 247.272 135.002V127.598C247.274 127.443 247.336 127.294 247.446 127.185C247.556 127.075 247.705 127.014 247.86 127.014H269.573C269.65 127.014 269.726 127.028 269.797 127.057C269.868 127.086 269.933 127.129 269.987 127.184C270.041 127.238 270.084 127.303 270.113 127.374C270.142 127.445 270.157 127.521 270.157 127.598L270.174 135.002ZM321.665 249.978C321.663 250.132 321.6 250.28 321.49 250.388C321.38 250.497 321.232 250.557 321.077 250.557H299.36C299.284 250.558 299.209 250.543 299.138 250.514C299.067 250.485 299.003 250.443 298.949 250.389C298.896 250.335 298.853 250.271 298.824 250.2C298.795 250.13 298.781 250.054 298.781 249.978V242.574C298.781 242.497 298.795 242.422 298.824 242.351C298.853 242.28 298.895 242.216 298.949 242.161C299.003 242.107 299.067 242.064 299.138 242.035C299.208 242.005 299.284 241.99 299.36 241.99H321.077C321.232 241.991 321.38 242.053 321.49 242.162C321.6 242.271 321.663 242.419 321.665 242.574V249.978ZM321.665 230.813C321.664 230.968 321.602 231.116 321.492 231.225C321.381 231.335 321.232 231.396 321.077 231.396H299.36C299.284 231.396 299.208 231.381 299.138 231.352C299.067 231.322 299.003 231.279 298.949 231.225C298.895 231.171 298.853 231.106 298.824 231.036C298.795 230.965 298.781 230.889 298.781 230.813V223.413C298.781 223.336 298.795 223.26 298.824 223.19C298.853 223.119 298.895 223.054 298.949 223C299.003 222.946 299.067 222.903 299.138 222.874C299.208 222.844 299.284 222.829 299.36 222.829H321.077C321.232 222.829 321.381 222.89 321.492 223C321.602 223.109 321.664 223.257 321.665 223.413V230.813ZM321.665 211.651C321.663 211.806 321.6 211.954 321.49 212.063C321.38 212.172 321.232 212.234 321.077 212.235H299.36C299.21 212.235 299.066 212.177 298.958 212.073C298.85 211.969 298.787 211.827 298.781 211.677V204.247C298.781 204.171 298.795 204.095 298.824 204.024C298.853 203.953 298.895 203.889 298.949 203.835C299.003 203.78 299.067 203.737 299.138 203.708C299.208 203.679 299.284 203.663 299.36 203.663H321.077C321.232 203.665 321.38 203.726 321.49 203.835C321.6 203.944 321.663 204.092 321.665 204.247V211.651ZM321.665 192.486C321.664 192.641 321.602 192.789 321.492 192.899C321.381 193.008 321.232 193.069 321.077 193.069H299.36C299.284 193.069 299.208 193.054 299.138 193.025C299.067 192.995 299.003 192.952 298.949 192.898C298.895 192.844 298.853 192.779 298.824 192.709C298.795 192.638 298.781 192.562 298.781 192.486V185.086C298.781 185.009 298.795 184.934 298.824 184.863C298.853 184.792 298.895 184.728 298.949 184.673C299.003 184.619 299.067 184.576 299.138 184.547C299.208 184.517 299.284 184.502 299.36 184.502H321.077C321.232 184.502 321.381 184.564 321.492 184.673C321.602 184.782 321.664 184.931 321.665 185.086V192.486ZM321.665 173.324C321.663 173.479 321.6 173.627 321.49 173.736C321.38 173.845 321.232 173.907 321.077 173.908H299.36C299.284 173.908 299.208 173.893 299.138 173.863C299.067 173.834 299.003 173.791 298.949 173.737C298.895 173.683 298.853 173.618 298.824 173.547C298.795 173.477 298.781 173.401 298.781 173.324V165.92C298.781 165.844 298.795 165.768 298.824 165.698C298.853 165.627 298.896 165.563 298.949 165.509C299.003 165.455 299.067 165.413 299.138 165.384C299.209 165.355 299.284 165.34 299.36 165.341H321.077C321.232 165.341 321.38 165.402 321.49 165.51C321.6 165.618 321.663 165.766 321.665 165.92V173.324ZM321.665 154.163C321.663 154.318 321.6 154.465 321.49 154.573C321.38 154.682 321.232 154.742 321.077 154.742H299.36C299.211 154.744 299.067 154.687 298.959 154.583C298.85 154.48 298.787 154.339 298.781 154.189V146.759C298.781 146.682 298.795 146.607 298.824 146.536C298.853 146.465 298.895 146.401 298.949 146.347C299.003 146.292 299.067 146.249 299.138 146.22C299.208 146.191 299.284 146.175 299.36 146.175H321.077C321.232 146.176 321.38 146.238 321.49 146.347C321.6 146.456 321.663 146.604 321.665 146.759V154.163ZM321.665 134.998C321.664 135.153 321.602 135.301 321.492 135.411C321.381 135.52 321.232 135.581 321.077 135.581H299.36C299.284 135.581 299.208 135.566 299.138 135.537C299.067 135.507 299.003 135.464 298.949 135.41C298.895 135.356 298.853 135.291 298.824 135.221C298.795 135.15 298.781 135.074 298.781 134.998V127.598C298.781 127.521 298.795 127.445 298.824 127.375C298.853 127.304 298.895 127.24 298.949 127.185C299.003 127.131 299.067 127.088 299.138 127.059C299.208 127.029 299.284 127.014 299.36 127.014H321.077C321.232 127.014 321.381 127.075 321.492 127.185C321.602 127.294 321.664 127.443 321.665 127.598V134.998Z" fill="#F2F2F2"/>
<path d="M81.0927 121.218C82.0074 120.055 82.8407 118.83 83.5869 117.552L66.0067 114.665L85.0263 114.807C86.8528 110.841 87.8497 106.544 87.956 102.178C88.0623 97.8132 87.2757 93.4723 85.6444 89.4219L60.1408 102.648L83.6603 85.3588C81.45 81.5629 78.4827 78.2619 74.9428 75.661C71.4029 73.0601 67.366 71.2147 63.0828 70.2396C58.7997 69.2644 54.3618 69.1802 50.0447 69.9923C45.7277 70.8044 41.6237 72.4953 37.9877 74.9602C34.3518 77.425 31.2614 80.6111 28.9087 84.3204C26.5559 88.0298 24.991 92.1833 24.3112 96.5229C23.6313 100.863 23.851 105.296 24.9567 109.547C26.0623 113.798 28.0302 117.776 30.7382 121.235C29.3134 123.045 28.0888 125.005 27.0856 127.079L49.8832 138.913L25.5597 130.748C23.8551 135.8 23.4367 141.196 24.3424 146.45C25.2481 151.703 27.4493 156.648 30.7468 160.837C28.0777 164.22 26.1232 168.109 25.002 172.27C29.2826 184.646 34.3208 196.747 40.0881 208.504C43.1751 210.264 46.5359 211.493 50.0302 212.139C49.6091 213.335 49.3956 214.594 49.3991 215.861C49.3667 217.733 49.8321 219.579 50.7477 221.212C49.9444 222.607 49.4768 224.17 49.3818 225.777C53.3297 232.512 57.6744 239.007 62.3929 245.228C62.1669 244.317 61.8117 243.444 61.3382 242.634C62.2509 240.998 62.73 239.156 62.73 237.283C62.73 235.41 62.2509 233.568 61.3382 231.932C62.2509 230.296 62.73 228.454 62.73 226.581C62.73 224.707 62.2509 222.865 61.3382 221.229C62.2688 219.601 62.7493 217.754 62.7301 215.878C62.7367 214.592 62.5173 213.315 62.0817 212.105C67.4659 211.049 72.4887 208.628 76.669 205.074C80.8493 201.521 84.047 196.953 85.9559 191.81C87.8648 186.666 88.4208 181.118 87.5708 175.698C86.7208 170.278 84.4932 165.167 81.1013 160.854C85.5452 155.207 87.9614 148.23 87.9614 141.044C87.9614 133.859 85.5452 126.882 81.1013 121.235L81.0927 121.218Z" fill="#F2F2F2"/>
<path d="M461.948 146.776L460.651 146.564H461.922C461.693 141.669 460.809 136.827 459.294 132.166L454.773 134.513L459.026 131.375C455.162 120.135 447.771 110.443 437.953 103.742C433.431 105.69 429.416 108.65 426.218 112.394C423.021 116.138 420.726 120.567 419.51 125.338C418.294 130.109 418.19 135.096 419.206 139.914C420.222 144.731 422.331 149.252 425.37 153.126C423.945 154.941 422.72 156.904 421.717 158.983L444.541 170.869L420.217 162.687C418.513 167.749 418.094 173.155 419 178.419C419.905 183.683 422.106 188.639 425.405 192.84C422.274 196.832 420.132 201.507 419.153 206.485C418.174 211.463 418.387 216.601 419.774 221.481C421.161 226.361 423.682 230.843 427.133 234.562C430.583 238.282 434.864 241.132 439.626 242.881C441.355 238.779 443.037 234.491 444.61 230.082C446.002 226.192 447.329 222.228 448.578 218.226C452.227 206.492 455.28 194.582 457.725 182.54C460.491 168.829 462.048 156.847 462.048 149.257C462.004 148.423 461.983 147.602 461.948 146.776Z" fill="#F2F2F2"/>
<path d="M229.965 298C356.971 298 459.929 293.162 459.929 287.194C459.929 281.226 356.971 276.388 229.965 276.388C102.959 276.388 0 281.226 0 287.194C0 293.162 102.959 298 229.965 298Z" fill="#3F3D56"/>
<path d="M352.036 175.032C347.739 167.589 329.991 169.78 312.436 179.925C309.381 181.685 306.438 183.636 303.627 185.764C302.087 166.459 293.27 148.461 278.959 135.412C264.648 122.364 245.913 115.24 226.547 115.484C207.181 115.728 188.632 123.321 174.654 136.726C160.676 150.131 152.315 168.346 151.262 187.684C147.739 184.781 143.98 182.179 140.023 179.903C122.504 169.78 104.751 167.589 100.458 175.032C96.1657 182.475 106.942 196.73 124.496 206.875C135.869 213.441 147.303 216.67 155.122 216.121C159.595 229.423 167.644 241.237 178.387 250.268C162.99 252.429 151.669 259.63 151.669 268.197C151.669 278.458 167.926 286.783 187.979 286.783C208.031 286.783 224.289 278.458 224.289 268.197C224.289 268.171 224.289 268.145 224.289 268.115C225.367 268.161 226.449 268.186 227.535 268.188C228.622 268.191 229.704 268.167 230.782 268.115C230.782 268.145 230.782 268.171 230.782 268.197C230.782 278.458 247.039 286.783 267.092 286.783C287.145 286.783 303.402 278.458 303.402 268.197C303.402 259.63 292.081 252.425 276.684 250.268C287.411 241.253 295.453 229.462 299.931 216.185C307.578 215.987 317.827 212.784 328.028 206.892C345.587 196.73 356.359 182.471 352.036 175.032Z" fill="#FFCD00"/>
<path opacity="0.1" d="M100.458 178.922C104.755 171.479 122.504 173.67 140.058 183.815C143.951 186.049 147.654 188.599 151.128 191.44C151.297 187.783 151.297 191.673 151.288 187.679C147.764 184.786 144.005 182.193 140.049 179.925C122.504 169.78 104.751 167.589 100.458 175.032C99.5117 176.67 99.2999 178.641 99.7279 180.824C99.8761 180.157 100.122 179.517 100.458 178.922Z" fill="black"/>
<path opacity="0.1" d="M352.131 178.922C347.834 171.479 330.086 173.67 312.527 183.815C308.434 186.175 306.873 187.04 303.622 189.711C303.45 186.054 303.45 189.944 303.462 185.95C306.748 183.232 308.369 182.328 312.54 179.925C330.116 169.78 347.847 167.589 352.144 175.032C353.091 176.67 353.303 178.641 352.875 180.824C352.722 180.157 352.472 179.516 352.131 178.922Z" fill="black"/>
<path d="M207.068 187.39C211.441 187.39 214.987 182.747 214.987 177.02C214.987 171.293 211.441 166.651 207.068 166.651C202.694 166.651 199.149 171.293 199.149 177.02C199.149 182.747 202.694 187.39 207.068 187.39Z" fill="#444053"/>
<path d="M247.982 187.39C252.355 187.39 255.901 182.747 255.901 177.02C255.901 171.293 252.355 166.651 247.982 166.651C243.608 166.651 240.062 171.293 240.062 177.02C240.062 182.747 243.608 187.39 247.982 187.39Z" fill="#444053"/>
<path d="M276.736 209.637C276.736 224.523 251.868 249.602 226.775 249.602C201.682 249.602 177.751 223.957 177.751 209.084C177.751 194.21 201.176 207.787 226.247 207.787C251.319 207.787 276.736 194.746 276.736 209.637Z" fill="#3F3D56"/>
<path d="M185.662 212.179C185.662 212.179 230.769 222.22 268.657 212.464C268.657 212.464 273.295 212.464 270.126 217.824C269.303 219.211 268.104 220.338 266.668 221.074C259.363 224.804 232.325 235.835 189.09 221.77C187.746 221.35 186.528 220.603 185.544 219.595C184.56 218.588 183.842 217.353 183.453 216C182.96 214.18 183.181 212.434 185.662 212.179Z" fill="#F6F8FB"/>
<path opacity="0.1" d="M227.246 125.587C246.712 125.588 265.443 133.024 279.61 146.374C293.777 159.725 302.309 177.982 303.463 197.413C303.607 195.511 303.679 193.59 303.679 191.651C303.527 171.5 295.416 152.227 281.112 138.031C266.809 123.836 247.474 115.87 227.321 115.87C207.169 115.87 187.834 123.836 173.531 138.031C159.227 152.227 151.116 171.5 150.964 191.651C150.964 193.177 151.016 194.677 151.102 196.194C152.553 176.993 161.205 159.05 175.325 145.957C189.444 132.864 207.989 125.588 227.246 125.587Z" fill="black"/>
<path d="M235.861 26.8335C235.861 28.1187 235.608 29.3912 235.116 30.5785C234.624 31.7658 233.903 32.8445 232.994 33.7533C232.086 34.662 231.007 35.3828 229.819 35.8746C228.632 36.3664 227.359 36.6195 226.074 36.6195C224.789 36.6195 223.517 36.3664 222.329 35.8746C221.142 35.3828 220.063 34.662 219.154 33.7533C218.245 32.8445 217.525 31.7658 217.033 30.5785C216.541 29.3912 216.288 28.1187 216.288 26.8335C216.288 26.6736 216.288 26.518 216.288 26.3624C216.417 23.8575 217.503 21.4978 219.322 19.7705C221.14 18.0432 223.553 17.0801 226.061 17.0801C228.57 17.0801 230.982 18.0432 232.801 19.7705C234.62 21.4978 235.706 23.8575 235.835 26.3624C235.856 26.518 235.861 26.6779 235.861 26.8335Z" fill="#3F3D56"/>
<path opacity="0.1" d="M235.861 26.8333C235.861 28.1184 235.608 29.3909 235.116 30.5782C234.624 31.7655 233.903 32.8443 232.994 33.753C232.086 34.6617 231.007 35.3825 229.819 35.8743C228.632 36.3661 227.359 36.6192 226.074 36.6192C224.789 36.6192 223.517 36.3661 222.329 35.8743C221.142 35.3825 220.063 34.6617 219.154 33.753C218.245 32.8443 217.525 31.7655 217.033 30.5782C216.541 29.3909 216.288 28.1184 216.288 26.8333C216.288 26.6734 216.288 26.5178 216.288 26.3622C219.047 24.1088 222.499 22.8779 226.061 22.8779C229.623 22.8779 233.076 24.1088 235.835 26.3622C235.856 26.5178 235.861 26.6777 235.861 26.8333Z" fill="black"/>
<path d="M226.074 54.6484C234.609 54.6484 241.528 47.73 241.528 39.1958C241.528 30.6615 234.609 23.7432 226.074 23.7432C217.54 23.7432 210.621 30.6615 210.621 39.1958C210.621 47.73 217.54 54.6484 226.074 54.6484Z" fill="#3F3D56"/>
<path d="M216.737 24.6722C216.738 22.3017 217.599 20.012 219.161 18.2282C220.722 16.4445 222.877 15.2877 225.227 14.9727C223.845 14.7877 222.438 14.9004 221.103 15.3031C219.768 15.7059 218.534 16.3894 217.484 17.3079C216.435 18.2264 215.593 19.3586 215.017 20.6287C214.441 21.8988 214.143 23.2774 214.143 24.6722C214.143 26.0669 214.441 27.4455 215.017 28.7156C215.593 29.9857 216.435 31.118 217.484 32.0365C218.534 32.955 219.768 33.6385 221.103 34.0412C222.438 34.444 223.845 34.5566 225.227 34.3717C222.877 34.0566 220.722 32.8999 219.161 31.1161C217.599 29.3323 216.738 27.0427 216.737 24.6722Z" fill="#3F3D56"/>
<path d="M208.641 45.4673C206.864 43.8974 205.718 41.7357 205.415 39.384C205.112 37.0323 205.673 34.6506 206.994 32.6816C205.984 33.5597 205.164 34.6357 204.586 35.8432C204.008 37.0506 203.684 38.3637 203.634 39.7013C203.584 41.0389 203.809 42.3726 204.295 43.6199C204.781 44.8672 205.517 46.0015 206.459 46.9527C207.401 47.904 208.528 48.6519 209.77 49.1502C211.013 49.6486 212.344 49.8867 213.682 49.85C215.021 49.8133 216.337 49.5024 217.55 48.9367C218.763 48.371 219.848 47.5624 220.736 46.5609C221.024 46.2354 221.29 45.8902 221.531 45.5278C219.74 47.0816 217.446 47.932 215.075 47.9209C212.704 47.9097 210.417 47.0378 208.641 45.4673Z" fill="#3F3D56"/>
<path d="M217.995 58.7891C217.226 59.0484 216.37 59.1046 215.709 59.5715C214.412 60.4662 214.468 62.3637 214.844 63.8939C215.709 67.3518 217.87 70.6844 221.142 72.1064C223.122 72.9709 225.335 73.0531 227.488 73.0271C229.835 73.0012 232.476 72.7029 233.929 70.8659C234.65 69.9452 234.957 68.7782 235.247 67.6414C235.965 64.8318 236.686 61.9574 236.427 59.0701C235.005 59.1954 233.401 59.2775 232.312 58.3828C231.223 57.4881 230.937 55.7893 230.453 54.3673C230.401 54.1411 230.273 53.9396 230.09 53.7967C229.889 53.6988 229.663 53.6641 229.442 53.6973C227.955 53.7531 226.467 53.6794 224.994 53.4769C224.073 53.3558 221.808 52.3962 221.103 53.2045C220.598 53.7967 220.917 55.5819 220.533 56.4074C220.29 56.9537 219.941 57.4458 219.505 57.8548C219.069 58.2639 218.556 58.5815 217.995 58.7891Z" fill="#FFC1C7"/>
<path opacity="0.05" d="M217.995 58.7891C217.226 59.0484 216.37 59.1046 215.709 59.5715C214.412 60.4662 214.468 62.3637 214.844 63.8939C215.709 67.3518 217.87 70.6844 221.142 72.1064C223.122 72.9709 225.335 73.0531 227.488 73.0271C229.835 73.0012 232.476 72.7029 233.929 70.8659C234.65 69.9452 234.957 68.7782 235.247 67.6414C235.965 64.8318 236.686 61.9574 236.427 59.0701C235.005 59.1954 233.401 59.2775 232.312 58.3828C231.223 57.4881 230.937 55.7893 230.453 54.3673C230.401 54.1411 230.273 53.9396 230.09 53.7967C229.889 53.6988 229.663 53.6641 229.442 53.6973C227.955 53.7531 226.467 53.6794 224.994 53.4769C224.073 53.3558 221.808 52.3962 221.103 53.2045C220.598 53.7967 220.917 55.5819 220.533 56.4074C220.29 56.9537 219.941 57.4458 219.505 57.8548C219.069 58.2639 218.556 58.5815 217.995 58.7891Z" fill="black"/>
<path d="M137.27 159.627C133.812 159.731 130.28 159.584 126.896 160.344C126.25 160.418 125.653 160.725 125.218 161.209C124.721 161.918 124.985 162.907 125.396 163.673C126.333 165.401 127.899 166.703 129.77 167.308C131.828 167.965 134.045 167.714 136.198 167.783C139.135 167.877 142.021 168.571 144.679 169.823C145.284 170.109 145.924 170.428 146.585 170.329C147.541 170.182 148.137 169.227 148.492 168.328C148.888 167.247 149.207 166.139 149.447 165.013C149.948 162.882 150.017 158.672 147.091 158.097C145.751 157.837 144.173 158.762 142.885 159.03C141.035 159.398 139.156 159.598 137.27 159.627Z" fill="#444053"/>
<path d="M314.503 160.625C315.326 160.344 316.035 159.8 316.521 159.078C317.818 157.189 317.818 154.932 318.505 152.862C319.37 150.169 321.285 147.947 322.487 145.384C323.563 143.09 324.058 140.567 323.93 138.036C323.921 137.853 323.872 137.674 323.789 137.511C323.705 137.348 323.587 137.204 323.444 137.09C323.301 136.975 323.134 136.893 322.957 136.847C322.779 136.802 322.594 136.794 322.413 136.826C320.783 137.141 319.305 138.321 318.268 139.67C316.932 141.399 316.059 143.456 314.688 145.164C313.318 146.871 311.395 148.241 309.765 149.81C307.72 151.781 306.117 153.925 307.941 156.484C309.423 158.585 311.472 161.619 314.503 160.625Z" fill="#444053"/>
<path d="M208.563 104.023C197.684 118.164 184.182 130.076 168.795 139.108C164.088 141.87 159.177 144.377 154.993 147.882C151.82 150.545 149.127 153.726 146.451 156.89C146.144 157.191 145.933 157.576 145.846 157.997C145.835 158.302 145.889 158.605 146.006 158.887C146.871 161.438 147.874 164.204 150.182 165.596C156.164 156.951 168.052 154.716 177.168 149.486C181.404 147.057 185.264 144.04 189.172 141.118C194.82 136.891 200.594 132.84 206.493 128.968C210.405 126.4 214.434 123.876 218.92 122.54C228.43 119.696 238.805 122.54 247.588 127.208C256.372 131.877 264.105 138.256 272.711 143.223C284.409 149.966 297.459 153.942 310.379 157.863C310.842 154.759 311.122 151.716 311.78 148.647C308.555 148.194 305.507 146.919 302.499 145.669C299.14 144.269 295.76 142.851 292.743 140.815C290.75 139.467 288.939 137.859 286.968 136.493C282.671 133.467 277.691 131.565 273.338 128.63C267.667 124.809 263.279 119.402 258.092 114.946C255.832 113.005 253.428 111.246 251.02 109.491C248.531 107.671 246.002 105.834 243.132 104.706C239.725 103.362 236.008 103.085 232.355 102.826C224.185 102.221 216.305 101.417 208.563 104.023Z" fill="#575A89"/>
<path d="M225.858 57.4578C231.826 57.4578 236.665 52.6197 236.665 46.6517C236.665 40.6837 231.826 35.8457 225.858 35.8457C219.89 35.8457 215.052 40.6837 215.052 46.6517C215.052 52.6197 219.89 57.4578 225.858 57.4578Z" fill="#FFC1C7"/>
<path d="M225.538 69.1843C223.593 68.9424 221.728 68.2626 220.083 67.196C218.438 66.1139 217.253 64.4596 216.759 62.5537C216.409 61.0279 216.603 59.3811 215.99 57.9461C214.04 58.9231 212.017 59.744 209.938 60.4012C208.766 60.7686 207.543 61.1057 206.592 61.8795C204.548 63.5436 204.431 66.5693 204.487 69.2016C204.469 69.7231 204.534 70.2441 204.682 70.7447C204.876 71.2198 205.162 71.6517 205.524 72.0155C207.746 74.3928 211.2 75.3783 213.305 77.8724C212.207 79.1027 211.499 80.631 211.269 82.264C211.219 82.9204 211.126 83.573 210.993 84.2177C210.817 84.7491 210.605 85.2676 210.357 85.7694C208.991 88.8816 209.039 92.4 208.831 95.7888C208.624 99.1776 208.036 102.787 205.745 105.298C206.679 106.301 207.906 106.595 209.251 106.72C210.595 106.846 211.987 106.668 213.357 106.72C216.971 106.824 220.381 108.302 223.865 109.266C227.349 110.23 231.305 110.623 234.387 108.734C235.467 108.073 236.384 107.161 237.469 106.508C238.766 105.722 240.287 105.346 241.791 104.978L242.332 86.9278C242.344 85.6627 242.435 84.3996 242.604 83.1457C243.386 78.2095 246.538 74.0298 249.589 70.0747C249.409 68.2721 248.822 66.5339 247.872 64.9914C246.921 63.4489 245.633 62.1424 244.104 61.1706C242.735 60.3573 241.287 59.6853 239.781 59.165L236.228 57.7991C235.914 57.6476 235.565 57.582 235.217 57.6089C234.447 57.7472 234.153 58.6852 234.11 59.4632C234.041 60.6908 234.222 61.9227 234.179 63.1502C234.136 64.3778 233.829 65.6745 232.96 66.5433C232.336 67.1023 231.599 67.5209 230.799 67.7709C228.983 68.4625 227.453 69.4696 225.538 69.1843Z" fill="#FF6584"/>
<path d="M211.196 114.423C211.338 116.83 211.481 119.264 211.075 121.641C210.668 124.019 209.674 126.37 207.867 127.969C206.471 129.201 204.509 130.13 204.163 131.976C204.078 132.38 204.111 132.8 204.258 133.186C204.643 134.094 205.771 134.505 206.748 134.349C207.714 134.126 208.607 133.658 209.341 132.992C210.838 131.768 212.272 130.47 213.638 129.102C214.844 127.93 216.093 126.694 216.599 125.091C216.809 124.326 216.927 123.54 216.949 122.748C217.23 118.425 217.304 114.103 217.381 109.781C217.433 106.634 217.468 103.388 216.309 100.461C216.482 100.894 212.272 101.304 211.952 101.326C210.137 101.486 210.482 102.234 210.586 103.945C210.788 107.449 210.991 110.942 211.196 114.423Z" fill="#FFC1C7"/>
<path d="M242.673 114.423C242.531 116.83 242.388 119.264 242.794 121.641C243.201 124.019 244.195 126.37 246.002 127.969C247.398 129.201 249.361 130.13 249.706 131.976C249.791 132.38 249.758 132.8 249.611 133.186C249.226 134.094 248.098 134.505 247.121 134.349C246.155 134.126 245.262 133.658 244.528 132.992C243.031 131.768 241.597 130.47 240.231 129.102C239.025 127.93 237.776 126.694 237.27 125.091C237.06 124.326 236.942 123.54 236.92 122.748C236.639 118.425 236.565 114.103 236.488 109.781C236.436 106.634 236.401 103.388 237.56 100.461C237.387 100.894 241.597 101.304 241.917 101.326C243.732 101.486 243.387 102.234 243.283 103.945C243.093 107.449 242.89 110.942 242.673 114.423Z" fill="#FFC1C7"/>
<path opacity="0.1" d="M205.771 67.6113C204.245 72.1153 204.863 77.1206 206.424 81.603C206.804 82.7052 207.249 83.8549 207.072 85.009C206.942 85.5994 206.763 86.1778 206.536 86.738C206.094 88.0929 206.014 89.5396 206.303 90.9351C206.367 91.3542 206.531 91.7517 206.782 92.0935C206.937 92.2516 207.081 92.419 207.215 92.5949C207.807 93.5199 206.644 94.6653 206.782 95.7589C206.886 96.6666 207.807 97.2026 208.451 97.8552C210.271 99.7009 209.921 102.705 209.445 105.255C211.654 105.061 213.56 103.254 215.774 103.401C216.501 103.461 217.196 103.73 217.774 104.175C218.352 104.621 218.789 105.224 219.033 105.912C218.951 103.773 219.711 101.949 219.897 99.8133C220.144 97.034 218.346 94.5443 217.477 91.899C216.21 88.0434 216.923 83.855 216.612 79.7962C216.477 78.2881 216.258 76.7887 215.955 75.3052C215.562 73.2737 214.987 71.052 213.266 69.8979C211.049 68.4239 207.712 69.47 205.771 67.6113Z" fill="black"/>
<path d="M205.339 66.7466C203.813 71.2505 204.431 76.2559 205.991 80.7382C206.372 81.8404 206.817 82.9902 206.64 84.1443C206.51 84.7347 206.331 85.3131 206.104 85.8733C205.662 87.2281 205.581 88.6748 205.87 90.0703C205.934 90.4895 206.099 90.8869 206.35 91.2287C206.504 91.3868 206.649 91.5543 206.782 91.7301C207.375 92.6551 206.212 93.8006 206.35 94.8941C206.454 95.8018 207.375 96.3378 208.019 96.9905C209.838 98.8362 209.488 101.84 209.013 104.39C211.222 104.196 213.128 102.389 215.341 102.536C216.069 102.596 216.763 102.865 217.342 103.311C217.92 103.756 218.357 104.359 218.6 105.047C218.518 102.908 219.279 101.084 219.465 98.9485C219.711 96.1692 217.913 93.6795 217.044 91.0342C215.778 87.1786 216.491 82.9902 216.18 78.9315C216.045 77.4233 215.826 75.924 215.523 74.4405C215.129 72.4089 214.554 70.1872 212.834 69.0331C210.616 67.5592 207.279 68.6052 205.339 66.7466Z" fill="#FF6584"/>
<path opacity="0.1" d="M248.111 67.6113C249.637 72.1153 249.019 77.1206 247.458 81.603C247.078 82.7052 246.633 83.8549 246.81 85.009C246.94 85.5994 247.119 86.1778 247.346 86.738C247.788 88.0929 247.868 89.5396 247.579 90.9351C247.515 91.3542 247.351 91.7517 247.1 92.0935C246.945 92.2516 246.801 92.419 246.667 92.5949C246.075 93.5199 247.238 94.6653 247.1 95.7589C246.996 96.6666 246.075 97.2026 245.431 97.8552C243.611 99.7009 243.961 102.705 244.437 105.255C242.228 105.061 240.322 103.254 238.108 103.401C237.381 103.461 236.686 103.73 236.108 104.175C235.53 104.621 235.093 105.224 234.849 105.912C234.931 103.773 234.171 101.949 233.985 99.8133C233.738 97.034 235.536 94.5443 236.405 91.899C237.672 88.0434 236.959 83.855 237.27 79.7962C237.403 78.2955 237.619 76.8034 237.918 75.3268C238.312 73.2953 238.887 71.0736 240.607 69.9195C242.833 68.4239 246.17 69.47 248.111 67.6113Z" fill="black"/>
<path d="M248.543 66.7466C250.069 71.2505 249.451 76.2559 247.891 80.7382C247.51 81.8404 247.065 82.9902 247.242 84.1443C247.372 84.7347 247.551 85.3131 247.778 85.8733C248.22 87.2281 248.301 88.6748 248.012 90.0703C247.948 90.4895 247.783 90.8869 247.532 91.2287C247.378 91.3868 247.233 91.5543 247.1 91.7301C246.507 92.6551 247.67 93.8006 247.532 94.8941C247.428 95.8018 246.507 96.3378 245.863 96.9905C244.044 98.8362 244.394 101.84 244.869 104.39C242.66 104.196 240.754 102.389 238.541 102.536C237.813 102.596 237.119 102.865 236.54 103.311C235.962 103.756 235.525 104.359 235.282 105.047C235.364 102.908 234.603 101.084 234.417 98.9485C234.171 96.1692 235.969 93.6795 236.838 91.0342C238.104 87.1786 237.391 82.9902 237.702 78.9315C237.835 77.4308 238.051 75.9386 238.351 74.4621C238.744 72.4305 239.319 70.2088 241.039 69.0547C243.265 67.5592 246.603 68.6052 248.543 66.7466Z" fill="#FF6584"/>
<path d="M225.642 45.1388C232.804 45.1388 238.61 41.2683 238.61 36.4939C238.61 31.7195 232.804 27.8491 225.642 27.8491C218.48 27.8491 212.674 31.7195 212.674 36.4939C212.674 41.2683 218.48 45.1388 225.642 45.1388Z" fill="#3F3D56"/>
<path opacity="0.05" d="M214.835 82.316C214.832 80.7833 215.409 79.3061 216.453 78.1829C217.496 77.0597 218.926 76.3741 220.455 76.2646C220.312 76.2646 220.17 76.2646 220.023 76.2646C218.418 76.2646 216.878 76.9022 215.743 78.0371C214.609 79.1719 213.971 80.7111 213.971 82.316C213.971 83.9209 214.609 85.4601 215.743 86.595C216.878 87.7299 218.418 88.3674 220.023 88.3674C220.17 88.3674 220.312 88.3674 220.455 88.3458C218.93 88.2366 217.502 87.5541 216.46 86.4354C215.417 85.3168 214.837 83.8451 214.835 82.316Z" fill="black"/>
<path d="M219.59 88.363C222.216 88.363 224.345 85.6537 224.345 82.3116C224.345 78.9695 222.216 76.2603 219.59 76.2603C216.964 76.2603 214.835 78.9695 214.835 82.3116C214.835 85.6537 216.964 88.363 219.59 88.363Z" fill="#FF6584"/>
<path opacity="0.05" d="M239.474 82.316C239.478 80.7833 238.9 79.3061 237.857 78.1829C236.814 77.0597 235.384 76.3741 233.855 76.2646C234.002 76.2646 234.145 76.2646 234.287 76.2646C235.892 76.2646 237.432 76.9022 238.566 78.0371C239.701 79.1719 240.339 80.7111 240.339 82.316C240.339 83.9209 239.701 85.4601 238.566 86.595C237.432 87.7299 235.892 88.3674 234.287 88.3674C234.145 88.3674 234.002 88.3674 233.855 88.3458C235.38 88.2366 236.808 87.5541 237.85 86.4354C238.893 85.3168 239.473 83.8451 239.474 82.316Z" fill="black"/>
<path d="M234.72 88.363C237.346 88.363 239.474 85.6537 239.474 82.3116C239.474 78.9695 237.346 76.2603 234.72 76.2603C232.093 76.2603 229.965 78.9695 229.965 82.3116C229.965 85.6537 232.093 88.363 234.72 88.363Z" fill="#FF6584"/>
<path opacity="0.1" d="M225.642 44.279C218.7 44.279 213.029 40.6395 212.674 36.0664C212.674 36.209 212.674 36.3517 212.674 36.4986C212.674 41.2533 218.484 45.1435 225.642 45.1435C232.8 45.1435 238.61 41.2533 238.61 36.4986C238.61 36.3517 238.61 36.209 238.61 36.0664C238.26 40.6395 232.589 44.279 225.642 44.279Z" fill="black"/>
<path d="M149.127 14.7524L142.418 19.01L146.49 11.6013C145.337 10.6814 143.91 10.1719 142.436 10.1533H142.327C141.861 10.1618 141.396 10.1285 140.936 10.0539L138.662 11.4933L139.634 9.7211C138.023 9.15733 136.631 8.09825 135.658 6.69541L131.59 9.28886L134.175 4.60769C131.797 1.7549 128.59 0 125.058 0C120.827 0 117.057 2.51997 114.624 6.44039C113.904 7.61756 112.884 8.58219 111.669 9.2354C110.453 9.88861 109.086 10.2069 107.707 10.1577H107.483C102.81 10.1577 99.0232 15.4569 99.0232 21.9881C99.0232 28.5193 102.81 33.8185 107.483 33.8185C108.509 33.8147 109.519 33.5626 110.426 33.0837C113.474 31.4974 117.477 31.4672 120.667 32.8806C122.036 33.4918 123.52 33.8077 125.02 33.8077C126.52 33.8077 128.003 33.4918 129.372 32.8806C130.979 32.1844 132.716 31.8415 134.466 31.8751C136.217 31.9087 137.939 32.3179 139.518 33.0751C140.419 33.5453 141.419 33.7928 142.436 33.7969C147.108 33.7969 150.895 28.502 150.895 21.9665C150.918 19.4518 150.311 16.9713 149.127 14.7524Z" fill="#F2F2F2"/>
<path opacity="0.03" d="M136.483 32.0636C134.042 31.6006 131.518 31.8759 129.234 32.8546C127.865 33.4658 126.383 33.7817 124.883 33.7817C123.384 33.7817 121.902 33.4658 120.533 32.8546C118.913 32.1444 117.159 31.7943 115.391 31.8286C113.623 31.8629 111.883 32.2809 110.292 33.0535C109.386 33.5356 108.375 33.7894 107.349 33.7926C103.195 33.7926 99.7451 29.6128 99.0232 24.0974C99.8527 23.4918 100.557 22.7315 101.098 21.8584C103.532 17.938 107.301 15.4224 111.533 15.4224C115.765 15.4224 119.491 17.9077 121.907 21.7893C122.633 22.9604 123.65 23.9243 124.857 24.5876C126.065 25.251 127.424 25.5913 128.802 25.5757H128.91C132.23 25.5541 135.091 28.2037 136.483 32.0636Z" fill="black"/>
<path d="M378.219 88.9204L374.873 91.0427L376.905 87.3513C376.328 86.8911 375.615 86.637 374.877 86.6295H374.825C374.592 86.6317 374.36 86.6144 374.129 86.5776L372.997 87.2951L373.481 86.4307C372.678 86.1481 371.984 85.6204 371.497 84.9221L369.47 86.2189L370.766 83.8891C370.226 83.1872 369.536 82.6149 368.746 82.2141C367.956 81.8132 367.087 81.594 366.202 81.5723C364.092 81.5723 362.212 82.8301 361.015 84.7838C360.654 85.3716 360.144 85.853 359.536 86.1789C358.929 86.5047 358.245 86.6632 357.556 86.6381H357.444C355.114 86.6381 353.225 89.2791 353.225 92.5382C353.225 95.7973 355.114 98.4297 357.444 98.4297C357.956 98.428 358.461 98.3019 358.914 98.0623C359.707 97.6769 360.575 97.4684 361.457 97.4512C362.34 97.4341 363.215 97.6086 364.023 97.9629C364.703 98.2653 365.44 98.4215 366.184 98.4215C366.929 98.4215 367.665 98.2653 368.346 97.9629C369.147 97.6152 370.014 97.4441 370.887 97.4613C371.761 97.4784 372.62 97.6834 373.408 98.0623C373.856 98.2967 374.354 98.4198 374.86 98.421C377.19 98.421 379.079 95.78 379.079 92.5209C379.096 91.2679 378.801 90.0303 378.219 88.9204Z" fill="#F2F2F2"/>
<path opacity="0.03" d="M371.92 97.5654C370.702 97.3343 369.443 97.4712 368.302 97.9588C367.622 98.2614 366.886 98.4175 366.141 98.4169C365.396 98.4131 364.66 98.2541 363.98 97.9501C363.173 97.5937 362.298 97.4179 361.416 97.4351C360.534 97.4523 359.667 97.662 358.875 98.0495C358.422 98.2887 357.917 98.4148 357.405 98.4169C355.334 98.4169 353.61 96.3292 353.251 93.5802C353.665 93.2783 354.017 92.8997 354.288 92.465C355.499 90.5069 357.379 89.2534 359.476 89.2534C361.572 89.2534 363.444 90.494 364.663 92.4304C365.027 93.0173 365.537 93.4999 366.143 93.8309C366.749 94.162 367.43 94.3303 368.121 94.3193H368.177C369.789 94.3193 371.216 95.6376 371.92 97.5654Z" fill="black"/>
<path d="M309.557 39.6449L314.935 43.0553L311.671 37.1207C312.595 36.382 313.739 35.9728 314.922 35.9579H315.008C315.382 35.9617 315.755 35.9328 316.124 35.8715L317.943 37.0299L317.165 35.6078C318.459 35.1501 319.575 34.2935 320.351 33.1613L323.61 35.2274L321.553 31.4842C323.459 29.1934 326.027 27.7886 328.858 27.7886C332.247 27.7886 335.269 29.8071 337.218 32.9495C337.795 33.8889 338.609 34.6592 339.579 35.1822C340.55 35.7052 341.641 35.9624 342.742 35.9277H342.928C346.672 35.9277 349.702 40.1723 349.702 45.4067C349.702 50.6412 346.676 54.8858 342.928 54.8858C342.104 54.8835 341.293 54.6818 340.564 54.2979C339.289 53.6762 337.894 53.3394 336.475 53.3111C335.057 53.2827 333.65 53.5634 332.351 54.1337C331.253 54.6238 330.065 54.8772 328.862 54.8772C327.66 54.8772 326.472 54.6238 325.374 54.1337C324.087 53.5754 322.694 53.3007 321.291 53.3283C319.888 53.3559 318.508 53.6851 317.243 54.2936C316.522 54.6688 315.722 54.8659 314.909 54.8685C311.166 54.8685 308.131 50.6239 308.131 45.3894C308.121 43.3857 308.611 41.4112 309.557 39.6449Z" fill="#F2F2F2"/>
<path opacity="0.03" d="M319.69 53.477C321.645 53.1045 323.666 53.3242 325.495 54.1081C326.593 54.5983 327.782 54.8516 328.984 54.8516C330.186 54.8516 331.374 54.5983 332.472 54.1081C333.771 53.5383 335.178 53.2575 336.596 53.2851C338.014 53.3127 339.409 53.6481 340.685 54.268C341.414 54.6542 342.225 54.8575 343.05 54.8602C346.374 54.8602 349.14 51.5103 349.715 47.0798C349.053 46.593 348.489 45.9842 348.055 45.286C346.106 42.1436 343.084 40.1294 339.691 40.1294C336.298 40.1294 333.319 42.122 331.37 45.2298C330.787 46.1664 329.972 46.9368 329.004 47.4668C328.037 47.9968 326.949 48.2684 325.845 48.2555H325.759C323.096 48.2901 320.805 50.3995 319.69 53.477Z" fill="black"/>
<path d="M104.349 282.638C102.563 279.336 104.586 275.29 106.912 272.347C109.237 269.403 112.077 266.334 112.017 262.582C111.93 257.188 106.203 254.002 101.643 251.145C98.2512 249.028 95.1228 246.517 92.323 243.663C91.1487 242.564 90.1784 241.266 89.457 239.829C88.5104 237.72 88.5363 235.321 88.5925 233.008C88.7914 225.314 89.1717 217.626 89.7337 209.944" stroke="#3F3D56" stroke-width="4" stroke-miterlimit="10"/>
<path d="M81.041 209.516C81.1014 208.102 81.5183 206.727 82.2529 205.518C82.9875 204.309 84.0159 203.305 85.2426 202.6L87.123 206.322L87.0581 201.831C87.9563 201.564 88.8932 201.452 89.829 201.498C91.4909 201.574 93.093 202.141 94.4326 203.128C95.7721 204.114 96.7891 205.476 97.3548 207.04C97.9205 208.605 98.0095 210.302 97.6106 211.917C97.2118 213.532 96.3429 214.993 95.1139 216.114C93.8849 217.235 92.351 217.967 90.7062 218.217C89.0613 218.466 87.3794 218.223 85.873 217.516C84.3667 216.81 83.1036 215.673 82.2435 214.249C81.3834 212.825 80.965 211.178 81.041 209.516Z" fill="#57B894"/>
<path d="M96.0448 266.438C96.9276 268.154 98.3736 269.514 100.14 270.291C101.907 271.067 103.887 271.212 105.749 270.702C107.61 270.192 109.239 269.058 110.363 267.489C111.487 265.92 112.037 264.013 111.922 262.086C111.806 260.16 111.032 258.332 109.728 256.909C108.425 255.486 106.672 254.554 104.763 254.27C102.854 253.986 100.905 254.367 99.2441 255.349C97.5828 256.332 96.3097 257.855 95.6385 259.664L100.89 263.939L95.1111 262.599C95.1083 263.935 95.4287 265.252 96.0448 266.438Z" fill="#57B894"/>
<path d="M100.199 250.108C102.264 250.207 104.294 249.542 105.9 248.24C107.507 246.937 108.577 245.089 108.907 243.048C109.237 241.007 108.803 238.915 107.689 237.173C106.574 235.431 104.857 234.161 102.866 233.605L102.909 237.063L101.003 233.289H100.981C99.8641 233.215 98.7435 233.364 97.6848 233.728C96.6261 234.091 95.6506 234.663 94.8155 235.408C93.9804 236.154 93.3024 237.059 92.8213 238.069C92.3402 239.08 92.0655 240.177 92.0135 241.295C91.9614 242.413 92.133 243.531 92.5182 244.582C92.9034 245.633 93.4944 246.596 94.2566 247.416C95.0189 248.236 95.937 248.896 96.9574 249.356C97.9777 249.817 99.0796 250.07 100.199 250.099V250.108Z" fill="#57B894"/>
<path d="M79.7788 236.518C81.0794 236.578 82.376 236.335 83.5668 235.809C84.7575 235.282 85.8099 234.487 86.6409 233.485C87.472 232.483 88.0591 231.301 88.356 230.034C88.6529 228.766 88.6516 227.447 88.3521 226.18C88.0525 224.913 87.463 223.733 86.6299 222.733C85.7968 221.733 84.7428 220.939 83.551 220.415C82.3592 219.891 81.062 219.651 79.7616 219.714C78.4612 219.776 77.1931 220.14 76.057 220.776L77.544 224.852L74.4879 221.913C73.6753 222.655 73.0169 223.55 72.5504 224.547C72.0838 225.544 71.8183 226.622 71.769 227.722C71.7293 228.5 71.8006 229.28 71.9808 230.039C72.3984 231.82 73.3858 233.417 74.7932 234.586C76.2005 235.755 77.951 236.434 79.7788 236.518Z" fill="#57B894"/>
<path opacity="0.1" d="M82.1736 211.746C84.1145 211.963 86.0035 212.563 87.953 212.684C89.9025 212.805 92.0379 212.339 93.2699 210.826C93.9356 210.009 94.2684 208.976 94.8303 208.09C95.3609 207.26 96.0885 206.574 96.9484 206.093C97.4877 207.159 97.7938 208.327 97.8461 209.521C97.8985 210.714 97.6961 211.905 97.2523 213.014C96.8085 214.124 96.1335 215.125 95.2723 215.953C94.411 216.781 93.3833 217.416 92.2575 217.816C91.1317 218.216 89.9336 218.371 88.7431 218.272C87.5525 218.173 86.3968 217.821 85.3528 217.24C84.3088 216.659 83.4005 215.863 82.6884 214.904C81.9762 213.945 81.4766 212.845 81.2227 211.677C81.5382 211.677 81.8711 211.712 82.1736 211.746Z" fill="black"/>
<path opacity="0.1" d="M79.7787 236.518C81.2287 236.585 82.6714 236.277 83.9668 235.622C85.2621 234.967 86.3661 233.988 87.1713 232.78C87.9766 231.573 88.4558 230.177 88.5625 228.73C88.6691 227.282 88.3995 225.832 87.7799 224.519C87.1103 224.968 86.5347 225.544 86.0855 226.213C85.4889 227.117 85.1258 228.163 84.4212 228.993C83.1244 230.532 80.8724 231.037 78.8407 230.942C76.8091 230.847 74.8509 230.276 72.8279 230.078C72.5513 230.052 72.266 230.034 71.9634 230.026C72.3794 231.812 73.3683 233.414 74.7794 234.586C76.1904 235.758 77.9461 236.437 79.7787 236.518Z" fill="black"/>
<path opacity="0.1" d="M100.199 250.108C101.635 250.175 103.064 249.873 104.35 249.232C105.636 248.59 106.736 247.629 107.545 246.442C108.354 245.254 108.846 243.879 108.973 242.447C109.099 241.016 108.857 239.576 108.269 238.264C107.574 238.726 106.97 239.312 106.488 239.993C105.836 240.918 105.429 241.977 104.664 242.829C103.242 244.411 100.86 244.99 98.7076 244.916C96.6241 244.873 94.6184 244.359 92.5479 244.203C93.0626 245.854 94.0731 247.306 95.4419 248.362C96.8108 249.419 98.4717 250.028 100.199 250.108Z" fill="black"/>
<path opacity="0.1" d="M96.0449 266.438C97.0296 268.351 98.7101 269.814 100.741 270.526C102.771 271.238 104.998 271.145 106.962 270.266C108.926 269.386 110.478 267.788 111.299 265.799C112.121 263.81 112.149 261.582 111.377 259.574C110.685 260.029 110.063 260.584 109.532 261.221C108.732 262.197 108.205 263.3 107.279 264.207C105.55 265.897 102.784 266.593 100.311 266.658C98.8862 266.668 97.4616 266.594 96.0449 266.438Z" fill="black"/>
<path d="M353.549 279.384C352.252 276.946 353.726 273.955 355.447 271.78C357.167 269.606 359.259 267.341 359.212 264.571C359.151 260.585 354.919 258.234 351.543 256.12C349.035 254.553 346.722 252.693 344.653 250.579C343.787 249.765 343.07 248.805 342.535 247.743C341.839 246.187 341.856 244.415 341.9 242.708C342.047 237.025 342.335 231.346 342.764 225.669" stroke="#3F3D56" stroke-width="4" stroke-miterlimit="10"/>
<path d="M336.319 225.362C336.369 224.321 336.679 223.31 337.221 222.42C337.764 221.531 338.521 220.792 339.423 220.27L340.815 223.024L340.771 219.691C341.436 219.497 342.128 219.414 342.82 219.445C344.049 219.499 345.234 219.917 346.226 220.645C347.217 221.374 347.97 222.38 348.389 223.536C348.809 224.692 348.875 225.947 348.581 227.142C348.287 228.336 347.644 229.416 346.736 230.245C345.827 231.075 344.693 231.615 343.477 231.8C342.26 231.984 341.017 231.803 339.903 231.28C338.79 230.758 337.857 229.916 337.222 228.863C336.587 227.809 336.279 226.591 336.336 225.362H336.319Z" fill="#57B894"/>
<path d="M347.402 267.436C348.055 268.703 349.123 269.707 350.428 270.28C351.733 270.852 353.195 270.959 354.569 270.582C355.944 270.204 357.146 269.366 357.976 268.207C358.805 267.048 359.211 265.64 359.125 264.217C359.039 262.795 358.466 261.445 357.503 260.395C356.54 259.344 355.245 258.657 353.835 258.448C352.426 258.239 350.987 258.521 349.761 259.247C348.534 259.973 347.595 261.099 347.1 262.435L350.99 265.595L346.724 264.605C346.72 265.589 346.952 266.56 347.402 267.436Z" fill="#57B894"/>
<path d="M350.471 255.334C352.115 255.406 353.721 254.824 354.937 253.715C356.152 252.606 356.878 251.06 356.955 249.416C357.003 248.445 356.82 247.476 356.419 246.589C356.048 245.756 355.498 245.014 354.809 244.417C354.12 243.819 353.307 243.381 352.43 243.132L352.46 245.695L351.055 242.907C349.407 242.829 347.796 243.41 346.576 244.52C345.356 245.631 344.627 247.181 344.549 248.828C344.472 250.476 345.052 252.088 346.163 253.307C347.274 254.527 348.823 255.256 350.471 255.334Z" fill="#57B894"/>
<path d="M335.385 245.314C336.347 245.361 337.307 245.183 338.188 244.795C339.07 244.407 339.849 243.82 340.465 243.08C341.081 242.339 341.516 241.466 341.736 240.528C341.957 239.591 341.956 238.615 341.735 237.678C341.514 236.741 341.078 235.868 340.461 235.128C339.845 234.388 339.065 233.801 338.183 233.414C337.301 233.027 336.342 232.85 335.38 232.898C334.418 232.945 333.48 233.215 332.641 233.687L333.738 236.713L331.478 234.551C330.878 235.099 330.392 235.76 330.047 236.495C329.703 237.231 329.508 238.028 329.472 238.839C329.441 239.42 329.493 240.002 329.628 240.568C329.944 241.876 330.676 243.046 331.714 243.902C332.753 244.758 334.041 245.253 335.385 245.314Z" fill="#57B894"/>
<path opacity="0.1" d="M337.158 227.017C338.589 227.177 339.985 227.622 341.424 227.713C342.864 227.804 344.45 227.454 345.354 226.339C345.846 225.733 346.093 224.973 346.503 224.316C346.896 223.704 347.434 223.198 348.068 222.842C348.561 223.811 348.791 224.893 348.735 225.979C348.679 227.065 348.339 228.117 347.749 229.03C347.158 229.943 346.338 230.686 345.371 231.183C344.404 231.68 343.323 231.914 342.237 231.863C340.872 231.792 339.568 231.274 338.527 230.389C337.486 229.504 336.764 228.301 336.475 226.965C336.687 226.974 336.907 226.991 337.158 227.017Z" fill="black"/>
<path opacity="0.1" d="M335.385 245.314C336.456 245.363 337.521 245.135 338.478 244.651C339.434 244.167 340.249 243.445 340.844 242.553C341.439 241.662 341.794 240.632 341.873 239.563C341.953 238.494 341.755 237.423 341.299 236.453C340.805 236.786 340.38 237.21 340.045 237.702C339.613 238.372 339.336 239.142 338.818 239.755C337.849 240.892 336.194 241.268 334.694 241.199C333.194 241.13 331.75 240.702 330.254 240.568C330.047 240.546 329.822 240.533 329.628 240.529C329.936 241.844 330.666 243.023 331.705 243.886C332.744 244.75 334.036 245.251 335.385 245.314Z" fill="black"/>
<path opacity="0.1" d="M350.471 255.334C352.115 255.406 353.721 254.824 354.936 253.715C356.152 252.606 356.878 251.06 356.955 249.416C357.003 248.445 356.82 247.476 356.419 246.589C355.914 246.928 355.474 247.355 355.122 247.851C354.638 248.53 354.34 249.317 353.774 249.944C352.723 251.111 350.964 251.526 349.373 251.487C347.783 251.448 346.348 251.076 344.826 250.959C345.202 252.181 345.946 253.257 346.956 254.04C347.967 254.822 349.194 255.274 350.471 255.334Z" fill="black"/>
<path opacity="0.1" d="M347.402 267.436C348.133 268.843 349.374 269.918 350.871 270.441C352.369 270.963 354.009 270.894 355.457 270.246C356.904 269.599 358.05 268.423 358.659 266.959C359.268 265.494 359.294 263.853 358.732 262.37C358.219 262.705 357.758 263.114 357.366 263.585C356.774 264.307 356.385 265.119 355.702 265.793C354.431 267.038 352.382 267.553 350.558 267.6C349.504 267.609 348.45 267.554 347.402 267.436Z" fill="black"/>
<path d="M406.143 285.664C407.928 282.361 405.905 278.316 403.579 275.372C401.254 272.428 398.392 269.359 398.474 265.608C398.561 260.213 404.288 257.028 408.849 254.171C412.242 252.054 415.371 249.542 418.173 246.688C419.347 245.59 420.317 244.292 421.039 242.854C421.985 240.745 421.959 238.346 421.903 236.034C421.722 228.328 421.343 220.642 420.766 212.974" stroke="#3F3D56" stroke-width="4" stroke-miterlimit="10"/>
<path d="M429.468 212.542C429.406 211.128 428.989 209.754 428.254 208.545C427.52 207.336 426.492 206.332 425.266 205.626L423.382 209.352L423.442 204.843C422.544 204.577 421.607 204.465 420.671 204.511C419.01 204.588 417.41 205.156 416.071 206.143C414.733 207.13 413.718 208.491 413.153 210.055C412.588 211.619 412.499 213.315 412.898 214.929C413.296 216.544 414.164 218.003 415.392 219.125C416.62 220.246 418.153 220.978 419.797 221.228C421.441 221.479 423.122 221.236 424.628 220.532C426.134 219.828 427.398 218.693 428.259 217.27C429.121 215.848 429.541 214.203 429.468 212.542Z" fill="#57B894"/>
<path d="M414.464 269.464C413.581 271.18 412.135 272.54 410.368 273.316C408.602 274.093 406.621 274.238 404.76 273.728C402.899 273.218 401.27 272.084 400.146 270.515C399.022 268.946 398.471 267.039 398.587 265.112C398.702 263.186 399.477 261.358 400.78 259.935C402.084 258.512 403.837 257.58 405.746 257.296C407.655 257.012 409.603 257.393 411.265 258.375C412.926 259.358 414.199 260.881 414.87 262.69L409.618 266.965L415.398 265.625C415.4 266.961 415.08 268.278 414.464 269.464Z" fill="#57B894"/>
<path d="M410.31 253.133C408.244 253.232 406.215 252.567 404.608 251.265C403.002 249.963 401.932 248.115 401.602 246.073C401.272 244.032 401.706 241.941 402.82 240.199C403.934 238.457 405.651 237.186 407.643 236.63L407.6 240.088L409.528 236.315C410.645 236.24 411.765 236.389 412.824 236.753C413.883 237.117 414.858 237.688 415.693 238.434C416.528 239.179 417.206 240.084 417.687 241.095C418.168 242.106 418.443 243.202 418.495 244.32C418.547 245.439 418.376 246.556 417.991 247.607C417.605 248.658 417.014 249.622 416.252 250.442C415.49 251.262 414.572 251.921 413.551 252.382C412.531 252.842 411.429 253.095 410.31 253.124V253.133Z" fill="#57B894"/>
<path d="M430.73 239.544C429.43 239.604 428.133 239.361 426.942 238.835C425.751 238.308 424.699 237.513 423.868 236.511C423.037 235.509 422.45 234.327 422.153 233.06C421.856 231.792 421.857 230.473 422.157 229.206C422.456 227.939 423.046 226.759 423.879 225.759C424.712 224.758 425.766 223.965 426.958 223.441C428.15 222.917 429.447 222.677 430.747 222.74C432.048 222.802 433.316 223.166 434.452 223.802L432.965 227.878L436.021 224.938C437.247 226.061 438.112 227.521 438.509 229.135C438.905 230.749 438.815 232.444 438.249 234.006C437.683 235.569 436.666 236.929 435.328 237.914C433.99 238.9 432.39 239.467 430.73 239.544Z" fill="#57B894"/>
<path opacity="0.1" d="M428.335 214.772C426.394 214.988 424.505 215.589 422.556 215.71C420.606 215.831 418.471 215.364 417.239 213.851C416.573 213.034 416.24 212.001 415.678 211.115C415.148 210.285 414.42 209.599 413.56 209.118C413.021 210.184 412.715 211.353 412.663 212.546C412.61 213.74 412.813 214.931 413.256 216.04C413.7 217.149 414.375 218.151 415.237 218.979C416.098 219.807 417.125 220.442 418.251 220.841C419.377 221.241 420.575 221.397 421.766 221.297C422.956 221.198 424.112 220.846 425.156 220.266C426.2 219.685 427.108 218.888 427.82 217.929C428.533 216.97 429.032 215.87 429.286 214.703C428.979 214.703 428.651 214.737 428.335 214.772Z" fill="black"/>
<path opacity="0.1" d="M430.73 239.543C429.28 239.611 427.837 239.302 426.542 238.647C425.247 237.992 424.143 237.013 423.337 235.806C422.532 234.598 422.053 233.203 421.946 231.755C421.84 230.308 422.109 228.857 422.729 227.544C423.399 227.994 423.974 228.569 424.423 229.239C425.02 230.142 425.383 231.188 426.088 232.018C427.384 233.557 429.636 234.063 431.668 233.968C433.7 233.872 435.658 233.302 437.681 233.103C437.958 233.077 438.243 233.06 438.545 233.051C438.129 234.838 437.14 236.439 435.729 237.611C434.318 238.784 432.563 239.462 430.73 239.543Z" fill="black"/>
<path opacity="0.1" d="M410.31 253.133C408.874 253.201 407.445 252.899 406.159 252.258C404.873 251.616 403.773 250.655 402.964 249.468C402.154 248.28 401.663 246.905 401.536 245.473C401.409 244.042 401.651 242.601 402.239 241.29C402.934 241.752 403.538 242.338 404.02 243.019C404.673 243.944 405.079 245.003 405.844 245.854C407.267 247.436 409.648 248.016 411.801 247.942C413.885 247.899 415.89 247.385 417.961 247.229C417.446 248.88 416.436 250.332 415.067 251.388C413.698 252.444 412.037 253.054 410.31 253.133Z" fill="black"/>
<path opacity="0.1" d="M414.464 269.464C413.456 271.334 411.777 272.754 409.765 273.438C407.753 274.121 405.557 274.018 403.618 273.149C401.678 272.279 400.14 270.708 399.312 268.751C398.484 266.795 398.427 264.597 399.153 262.6C399.846 263.055 400.468 263.61 400.999 264.246C401.799 265.223 402.326 266.326 403.251 267.233C404.98 268.923 407.747 269.619 410.219 269.684C411.637 269.693 413.054 269.619 414.464 269.464Z" fill="black"/>
<path d="M91.3071 280.136C91.3071 280.136 97.9424 279.928 99.9524 278.506C101.962 277.084 110.167 275.381 110.664 277.641C111.161 279.902 120.641 289.005 113.145 289.066C105.65 289.126 95.7292 287.899 93.7321 286.684C91.7351 285.469 91.3071 280.136 91.3071 280.136Z" fill="#656380"/>
<path opacity="0.2" d="M113.27 288.292C105.775 288.353 95.8546 287.125 93.8575 285.91C92.3359 284.985 91.7308 281.661 91.5276 280.127H91.3071C91.3071 280.127 91.7394 285.478 93.7235 286.697C95.7076 287.916 105.641 289.139 113.136 289.079C115.298 289.079 116.046 288.292 116.007 287.155C115.704 287.851 114.883 288.279 113.27 288.292Z" fill="black"/>
<path d="M345.552 279.314C345.552 279.314 349.443 279.198 350.597 278.363C351.751 277.529 356.558 276.539 356.847 277.875C357.137 279.211 362.67 284.506 358.295 284.54C353.921 284.575 348.129 283.861 346.961 283.148C345.794 282.435 345.552 279.314 345.552 279.314Z" fill="#656380"/>
<path opacity="0.2" d="M358.356 284.077C353.981 284.112 348.189 283.394 347.022 282.685C346.157 282.145 345.781 280.204 345.665 279.31H345.552C345.552 279.31 345.799 282.435 346.961 283.144C348.124 283.852 353.921 284.574 358.295 284.535C359.558 284.535 359.994 284.077 359.968 283.412C359.778 283.818 359.294 284.069 358.356 284.077Z" fill="black"/>
<path d="M393.46 281.865C393.46 281.865 400.095 281.657 402.105 280.235C404.116 278.813 412.32 277.11 412.817 279.37C413.314 281.631 422.794 290.734 415.298 290.795C407.803 290.855 397.882 289.628 395.885 288.413C393.888 287.198 393.46 281.865 393.46 281.865Z" fill="#656380"/>
<path opacity="0.2" d="M415.424 290.021C407.928 290.081 398.008 288.853 396.011 287.639C394.489 286.714 393.884 283.39 393.681 281.855H393.46C393.46 281.855 393.892 287.207 395.877 288.426C397.861 289.644 407.794 290.868 415.29 290.807C417.451 290.807 418.199 290.021 418.16 288.884C417.857 289.58 417.036 290.008 415.424 290.021Z" fill="black"/>
</g>
<defs>
<clipPath id="clip0">
<rect width="462" height="298" fill="white"/>
</clipPath>
</defs>
</svg>
